A000000|00500|0200|C|Fringe Benefits
A000000|10100|0100|C|Total Salary - Hours (Worksheet A, line 101, column 1)
A600000|00600|0500|C|Interest 2
A700003|00500|0900|C|Depreciation and Amortization
A700003|00500|0900|C|Depreciation Expense
A700003|00500|1000|C|Lease Cost
A700003|00500|1100|C|Interest
B000001|00500|0500|C|Total Benefits Cost (Worksheet B, line 5, column 5)
B000001|10300|0500|C|Benefits as a Percentage of Salary (Worksheet B-1, line 104, Column 1)
C000001|04400|0500|N|Cost
C000001|04400|0600|N|Inpatient Charges
C000001|04400|0700|N|Outpatient Charges
C000001|10100|0500|C|Total Allowable Cost
C000001|10100|0600|C|Inpatient Charges
C000001|10100|0600|C|Total Inpatient Charges
C000001|10100|0700|C|Outpatient Charges
C000001|10100|0700|C|Total Outpatient Charges
D00A185|10400|0501|C|Medicare Outpatient Charges 1
D00A185|10400|0502|C|Medicare Outpatient Charges 2
D10A181|05200|0100|C|Medicare Capital Cost
D10A181|05300|0100|C|Medicare Operations Cost
D10A181|08400|0100|C|Adjusted general inpatient routine cost per diem 
D40A180|10100|0200|C|Medicare Inpatient Charges
D40A180|10300|0200|C|Medicare Inpatient Charges
D41B180|10100|0200|C|Medicare Inpatient Charges - Subprovider
E00A18A|00200|0100|C|Outlier Payments Prior 10/1/97
E00A18A|00201|0100|C|Outlier Payments After 10/1/97
E00A18A|02100|0100|C|Inpatient Bad Debt PPS
E00A18A|02200|0100|C|Subtotal (reduced for D&C) - 
E00A18B|02700|0100|C|Outpatient Bad Debt
E00A18B|03200|0100|C|Subtotal
E30C183|05500|0200|C|Total Amount Payable to Provider
E31B181|01700|0100|C|Total Amount Payable to Provider
E32B181|01700|0100|C|Total Amount Payable to Provider
G000000|00100|0100|C|Cash on Hand
G000000|00200|0100|C|Market Securities
G000000|00200|0600|C|Allowance For Uncollectable
G000000|00300|0100|C|Notes receivable
G000000|00400|0100|C|Accounts Receivable
G000000|00500|0100|C|Other receivables
G000000|00600|0100|C|Allowances for uncollectable
G000000|00700|0100|C|Inventory
G000000|01100|0100|C|Current Assets
G000000|01100|0100|C|Total Current Assets
G000000|01200|0100|C|Land
G000000|01200|0200|C|Land 2
G000000|01200|0300|C|Land 3
G000000|01200|0400|C|Land 4
G000000|01300|0100|C|Land Impr
G000000|01300|0200|C|Land Impr 2
G000000|01300|0300|C|Land Impr 3
G000000|01300|0400|C|Land Impr 4
G000000|01301|0100|C|Land Imp AD
G000000|01301|0200|C|Land Imp AD 2
G000000|01301|0300|C|Land Imp AD 3
G000000|01301|0400|C|Land Imp AD 4
G000000|01400|0100|C|Bldg
G000000|01400|0200|C|Bldg 2
G000000|01400|0300|C|Bldg 3
G000000|01400|0400|C|Bldg 4
G000000|01401|0100|C|Bldg AD
G000000|01401|0200|C|Bldg AD 2
G000000|01401|0300|C|Bldg AD 3
G000000|01401|0400|C|Bldg AD 4
G000000|01500|0100|C|Leasehold Imp
G000000|01500|0200|C|Leasehold Imp 2
G000000|01500|0300|C|Leasehold Imp 3
G000000|01500|0400|C|Leasehold Imp 4
G000000|01501|0100|C|Leasehold Imp AD
G000000|01501|0200|C|Leasehold Imp AD 2
G000000|01501|0300|C|Leasehold Imp AD 3
G000000|01501|0400|C|Leasehold Imp AD 4
G000000|01600|0100|C|Fixed Equip
G000000|01600|0200|C|Fixed Equip 2
G000000|01600|0300|C|Fixed Equip 3
G000000|01600|0400|C|Fixed Equip 4
G000000|01601|0100|C|Fixed Equip AD
G000000|01601|0200|C|Fixed Equip AD 2
G000000|01601|0300|C|Fixed Equip AD 3
G000000|01601|0400|C|Fixed Equip AD 4
G000000|01700|0100|C|Auto
G000000|01700|0200|C|Auto 2
G000000|01700|0300|C|Auto 3
G000000|01700|0400|C|Auto 4
G000000|01701|0100|C|Auto AD
G000000|01701|0200|C|Auto AD 2
G000000|01701|0300|C|Auto AD 3
G000000|01701|0400|C|Auto AD 4
G000000|01800|0100|C|MME
G000000|01800|0200|C|MME 2
G000000|01800|0300|C|MME 3
G000000|01800|0400|C|MME 4
G000000|01801|0100|C|MME AD
G000000|01801|0200|C|MME AD 2
G000000|01801|0300|C|MME AD 3
G000000|01801|0400|C|MME AD 4
G000000|01900|0100|C|Minor Equip
G000000|01900|0200|C|Minor Equip 2
G000000|01900|0300|C|Minor Equip 3
G000000|01900|0400|C|Minor Equip 4
G000000|01901|0100|C|Minor Equip AD
G000000|01901|0200|C|Minor Equip AD 2
G000000|01901|0300|C|Minor Equip AD 3
G000000|01901|0400|C|Minor Equip AD 4
G000000|02100|0100|C|Total fixed Assets
G000000|02100|0100|C|Total PPE
G000000|02100|0200|C|Total PPE 2
G000000|02100|0300|C|Total PPE 3
G000000|02100|0400|C|Total PPE 4
G000000|02200|0100|C|Investments
G000000|02600|0100|C|Net Income
G000000|02600|0100|C|Total Other Assets
G000000|02700|0100|C|Total Assets
G000000|03600|0100|C|Current Liabilities
G000000|03600|0100|C|Total Current Liabilities
G000000|04200|0100|C|LT Liabilities
G000000|04200|0100|C|Total Long Term Liabilities
G000000|04300|0100|C|Total Liabilities
G000000|05100|0100|C|Total Fund Balances
G200000|00100|0100|C|Hospital IP Routine Service Revenue
G200000|01700|0200|C|Revenue from IP Services in an OP Setting*
G200000|01800|0100|C|Revenue from OP Services in an IP Setting*
G200000|01800|0200|C|Outpatient Services Revenue
G200000|02500|0100|C|Total Gross Inpatient Charges
G200000|02500|0100|C|Total IP Revenues
G200000|02500|0100|C|Total Patient Revenues
G200000|02500|0200|C|Total Gross Outpatient Charges
G200000|02500|0200|C|Total OP Revenues
G300000|00100|0100|C|Total Operating Revenue
G300000|00200|0100|C|Contractual Allowances and Discounts*
G300000|00200|0100|C|Contractual Allowances and Discounts on Patient Accounts
G300000|00300|0100|C|Net Patient Revenue
G300000|00300|0100|C|Net Patient Revenues
G300000|00400|0100|C|Total Operating Expense
G300000|00400|0100|C|Total Operating Expenses
G300000|00500|0100|C|Net Income from Services to Patients
G300000|00500|0100|C|Net Income From Service to Patients
G300000|00600|0100|C|Other Income Contributions, Donations, etc
G300000|00700|0100|C|Other Income From Investments
G300000|02300|0100|C|Other Income - Governmant Appropriations
G300000|02500|0100|C|Total Other Income
G300000|03000|0100|C|Other Expenses
G300000|03000|0100|C|Total Other Expenses
G300000|03100|0100|C|Net Income
G300000|03100|0100|C|Total Net Income or Loss
L00A181|00300|0100|C|Cap. DRG Outlier Pmnts Prior 10/1/97
L00A181|00301|0100|C|Cap. DRG Outlier Pmnts After 10/1/97
S100000|01700|0100|C|Revenues from Uncompensated Care
S100000|01701|0100|C|Gross Medicaid Revenues
S200000|00100|0100|S|Address
S200000|00101|0100|S|City
S200000|00101|0200|S|State
S200000|00101|0300|S|Zip
S200000|00101|0400|S|County
S200000|00200|0100|S|Facility City
S200000|00200|0100|S|Facility Name
S200000|00200|0100|S|Hospital
S200000|00200|0200|N|Provider Number
S200000|00900|0200|S|HHAProvider Number(0)
S200000|00900|0300|S|HHACertified Date(0)
S200000|00900|0500|S|PPS Indicator(0)
S200000|00901|0200|S|HHAProvider Number(1)
S200000|00901|0300|S|HHACertified Date(1)
S200000|00901|0500|S|PPS Indicator(1)
S200000|00902|0200|S|HHAProvider Number(2)
S200000|00902|0300|S|HHACertified Date(2)
S200000|00902|0500|S|PPS Indicator(2)
S200000|00903|0200|S|HHAProvider Number(3)
S200000|00903|0300|S|HHACertified Date(3)
S200000|00903|0500|S|PPS Indicator(3)
S200000|00904|0200|S|HHAProvider Number(4)
S200000|00904|0300|S|HHACertified Date(4)
S200000|00904|0500|S|PPS Indicator(4)
S200000|01800|0100|N|Type of Control
S200000|02103|0100|N|Urban (1) or Rural (2)
S200000|04001|0100|S|System Name
S300001|00100|0100|N|No Beds Hospital
S300001|00100|0200|N|Bed Days Available Hospital
S300001|00100|0300|N|Title V: I/P Days / O/P Visits / Trips
S300001|00100|0400|N|Title XVIII: I/P Days / O/P Visits / Trips
S300001|00100|0500|N|Title XIX: I/P Days / O/P Visits / Trips
S300001|00100|0600|N|Total All Patients: I/P Days / O/P Visits / Trips
S300001|00100|1200|N|Discharges: Title V
S300001|00100|1300|N|Discharges: Title XVIII
S300001|00100|1300|N|Total Medicare Discharges
S300001|00100|1400|N|Discharges: Title XIX
S300001|00100|1500|N|Discharges: Total All Patients
S300001|00500|0400|N|Total A&P Medicare Days
S300001|00500|0400|N|Total Medicare A&P Days
S300001|01200|0100|N|Beds
S300001|01200|0100|N|Beds*
S300001|01200|0100|N|Beds s
S300001|01200|0400|N|Medicare Patient Days
S300001|01200|0400|N|Total Medicare Days after ICU & CCU
S300001|01200|0500|N|Medicaid Patient Days
S300001|01200|0600|C|Total Patient Days/Visits
S300001|01200|0600|N|Patient Days
S300001|01200|1000|N|FTEs
S300001|01200|1000|N|LAST ROW
S300001|01200|1300|N|Medicare Discharges
S300001|01200|1400|N|Medicaid Discharges
S300001|01200|1500|N|Total Discharges
S300001|02500|1000|N|FTEs
S300001|02500|1000|N|Total FTEs (Worksheet S-3, Part I, Line 25, 10)
S300002|00100|0100|C|Total Salaries
S300002|00100|0100|C|Total Salaries - Amount Reported
S300002|00100|0100|C|Total Salary
S300002|00100|0100|C|Total Salary - Dollars (Worksheet S-3, Part II, line 1, column 1)
S300002|00100|0300|N|salaries cost
S300002|00100|0400|C|Total Salary - Hours (Worksheet S-3, Part II, line 1, column 4)
S300002|00100|0400|N|salaried employees paid hours
S300002|00900|0300|C|Contract Labor 1
S300002|00900|0300|N|Contract Labor
S300002|00900|0400|N|Paid Hours
S300002|00901|0300|C|Contract Labor 2
S300002|01000|0300|C|Contract Labor 3
S300002|01010|0300|C|Contract Labor 4
S300002|01100|0300|C|Contract Labor 5
S300002|01200|0300|C|Contract Labor 6
S300002|01210|0300|C|Contract Labor 7
SPECIAL|00100|0100|S|Report ID 
SPECIAL|00100|0200|U|Link to Report
SPECIAL|00200|0100|S|Status
SPECIAL|00300|0100|S|FY Begins
SPECIAL|00300|0200|S|FY ends
SPECIAL|00300|0300|N|Days in Period
SPECIAL|00400|0100|D|Quick Ratio
SPECIAL|00500|0100|C|EBIDAR
SPECIAL|00600|0100|D|Operating Margin
SPECIAL|00700|0100|D|Excess Margin
SPECIAL|00800|0100|N|Days in Patient AR
SPECIAL|00900|0100|D|Return on Assets
SPECIAL|01000|0100|D|Return on Equity
SPECIAL|01100|0100|D|Personnel Expense Percent of Total Op Revenue
